{
   "action_manifest_version" : 0,
   "alias_info" : {},
   
   "bindings" : {
      "/actions/default" : {
         "chords" : [],
         "haptics" : [],
         "poses" : [
            {
               "output" : "/actions/default/in/headpose",
               "path" : "/user/head/pose/raw"
            }
         ],
         "skeleton" : [],
         "sources" : [
            {
               "inputs" : {
                  "click" : {
                     "output" : "/actions/default/in/headsetonhead"
                  }
               },
               "mode" : "button",
               "path" : "/user/head/proximity"
            }
         ]
      }
   },
   "category" : "steamvr_input",
   "controller_type" : "holographic_hmd",
   "description" : "",
   "name" : "holographic_hmd defaults",
   "options" : {},
   "simulated_actions" : []
}
