%YAML 1.1
%TAG !u! tag:unity3d.com,2011:
--- !u!54 &313265332
Rigidbody:
  m_ObjectHideFlags: 0
  m_CorrespondingSourceObject: {fileID: 0}
  m_PrefabInstance: {fileID: 0}
  m_PrefabAsset: {fileID: 0}
  m_GameObject: {fileID: 734323277506273244}
  serializedVersion: 2
  m_Mass: 1
  m_Drag: 0
  m_AngularDrag: 0.05
  m_UseGravity: 0
  m_IsKinematic: 0
  m_Interpolate: 2
  m_Constraints: 126
  m_CollisionDetection: 0
--- !u!65 &313265333
BoxCollider:
  m_ObjectHideFlags: 0
  m_CorrespondingSourceObject: {fileID: 0}
  m_PrefabInstance: {fileID: 0}
  m_PrefabAsset: {fileID: 0}
  m_GameObject: {fileID: 734323277506273244}
  m_Material: {fileID: 0}
  m_IsTrigger: 0
  m_Enabled: 1
  serializedVersion: 2
  m_Size: {x: 0.099999994, y: 0.039999995, z: 0.02}
  m_Center: {x: 0, y: 0.009999999, z: -2.9802322e-10}
--- !u!114 &313265330
MonoBehaviour:
  m_ObjectHideFlags: 0
  m_CorrespondingSourceObject: {fileID: 0}
  m_PrefabInstance: {fileID: 0}
  m_PrefabAsset: {fileID: 0}
  m_GameObject: {fileID: 734323277506273244}
  m_Enabled: 1
  m_EditorHideFlags: 0
  m_Script: {fileID: 11500000, guid: a338c390aecf73d4da3da6649573062d, type: 3}
  m_Name: 
  m_EditorClassIdentifier: 
  blockingMask:
    serializedVersion: 2
    m_Bits: 1
--- !u!114 &313265331
MonoBehaviour:
  m_ObjectHideFlags: 0
  m_CorrespondingSourceObject: {fileID: 0}
  m_PrefabInstance: {fileID: 0}
  m_PrefabAsset: {fileID: 0}
  m_GameObject: {fileID: 734323277506273244}
  m_Enabled: 1
  m_EditorHideFlags: 0
  m_Script: {fileID: 11500000, guid: 3e871dd6a355f4c45aa0fad5e319ac44, type: 3}
  m_Name: 
  m_EditorClassIdentifier: 
  touchCount: 0
  rend: {fileID: 1300415689208490752}
  rendFallback: {fileID: 0}
  reorientOnGrip: 0
--- !u!1001 &8723817961963423445
PrefabInstance:
  m_ObjectHideFlags: 0
  serializedVersion: 2
  m_Modification:
    m_TransformParent: {fileID: 0}
    m_Modifications:
    - target: {fileID: -927199367670048503, guid: 1ae96a58ac78475469fdb86bf7ff1203,
        type: 3}
      propertyPath: m_Name
      value: LadderRung Variant
      objectReference: {fileID: 0}
    - target: {fileID: -927199367670048503, guid: 1ae96a58ac78475469fdb86bf7ff1203,
        type: 3}
      propertyPath: m_Layer
      value: 9
      objectReference: {fileID: 0}
    - target: {fileID: -927199367670048503, guid: 1ae96a58ac78475469fdb86bf7ff1203,
        type: 3}
      propertyPath: m_TagString
      value: Grabbable
      objectReference: {fileID: 0}
    - target: {fileID: -4216859302048453862, guid: 1ae96a58ac78475469fdb86bf7ff1203,
        type: 3}
      propertyPath: m_LocalPosition.x
      value: -4.1
      objectReference: {fileID: 0}
    - target: {fileID: -4216859302048453862, guid: 1ae96a58ac78475469fdb86bf7ff1203,
        type: 3}
      propertyPath: m_LocalPosition.y
      value: -4.5
      objectReference: {fileID: 0}
    - target: {fileID: -4216859302048453862, guid: 1ae96a58ac78475469fdb86bf7ff1203,
        type: 3}
      propertyPath: m_LocalPosition.z
      value: 2.6
      objectReference: {fileID: 0}
    - target: {fileID: -4216859302048453862, guid: 1ae96a58ac78475469fdb86bf7ff1203,
        type: 3}
      propertyPath: m_LocalRotation.x
      value: -0.49991274
      objectReference: {fileID: 0}
    - target: {fileID: -4216859302048453862, guid: 1ae96a58ac78475469fdb86bf7ff1203,
        type: 3}
      propertyPath: m_LocalRotation.y
      value: 0.50008726
      objectReference: {fileID: 0}
    - target: {fileID: -4216859302048453862, guid: 1ae96a58ac78475469fdb86bf7ff1203,
        type: 3}
      propertyPath: m_LocalRotation.z
      value: 0.49991274
      objectReference: {fileID: 0}
    - target: {fileID: -4216859302048453862, guid: 1ae96a58ac78475469fdb86bf7ff1203,
        type: 3}
      propertyPath: m_LocalRotation.w
      value: 0.50008726
      objectReference: {fileID: 0}
    - target: {fileID: -4216859302048453862, guid: 1ae96a58ac78475469fdb86bf7ff1203,
        type: 3}
      propertyPath: m_RootOrder
      value: 0
      objectReference: {fileID: 0}
    - target: {fileID: -4216859302048453862, guid: 1ae96a58ac78475469fdb86bf7ff1203,
        type: 3}
      propertyPath: m_LocalEulerAnglesHint.x
      value: -89.98
      objectReference: {fileID: 0}
    - target: {fileID: -4216859302048453862, guid: 1ae96a58ac78475469fdb86bf7ff1203,
        type: 3}
      propertyPath: m_LocalEulerAnglesHint.y
      value: 90
      objectReference: {fileID: 0}
    - target: {fileID: -4216859302048453862, guid: 1ae96a58ac78475469fdb86bf7ff1203,
        type: 3}
      propertyPath: m_LocalEulerAnglesHint.z
      value: 0
      objectReference: {fileID: 0}
    - target: {fileID: -4216859302048453862, guid: 1ae96a58ac78475469fdb86bf7ff1203,
        type: 3}
      propertyPath: m_LocalScale.x
      value: 15
      objectReference: {fileID: 0}
    - target: {fileID: -4216859302048453862, guid: 1ae96a58ac78475469fdb86bf7ff1203,
        type: 3}
      propertyPath: m_LocalScale.y
      value: 25
      objectReference: {fileID: 0}
    - target: {fileID: -4216859302048453862, guid: 1ae96a58ac78475469fdb86bf7ff1203,
        type: 3}
      propertyPath: m_LocalScale.z
      value: 15
      objectReference: {fileID: 0}
    m_RemovedComponents: []
  m_SourcePrefab: {fileID: 100100000, guid: 1ae96a58ac78475469fdb86bf7ff1203, type: 3}
--- !u!1 &734323277506273244 stripped
GameObject:
  m_CorrespondingSourceObject: {fileID: -927199367670048503, guid: 1ae96a58ac78475469fdb86bf7ff1203,
    type: 3}
  m_PrefabInstance: {fileID: 8723817961963423445}
  m_PrefabAsset: {fileID: 0}
--- !u!23 &1300415689208490752 stripped
MeshRenderer:
  m_CorrespondingSourceObject: {fileID: -1504981713932161579, guid: 1ae96a58ac78475469fdb86bf7ff1203,
    type: 3}
  m_PrefabInstance: {fileID: 8723817961963423445}
  m_PrefabAsset: {fileID: 0}
