# Blender v2.92.0 OBJ File: 'Wire2.blend'
# www.blender.org
mtllib Wire2.mtl
o Cube
v -1.369036 0.819036 -0.256000
v 0.250000 -1.000000 -0.256000
v -1.369036 0.819036 0.256000
v 0.250000 -1.000000 0.256000
v -1.369036 0.319036 -0.256000
v -0.250000 -1.000000 -0.256000
v -1.369036 0.319036 0.256000
v -0.250000 -1.000000 0.256000
v -0.702369 0.819036 -0.256000
v 0.148181 0.038706 -0.256000
v -0.205372 -0.314848 0.256000
v -0.702369 0.319036 0.256000
v -0.702369 0.819036 0.256000
v 0.148181 0.038706 0.256000
v -0.702369 0.319036 -0.256000
v -0.205372 -0.314848 -0.256000
vt 0.500000 1.000000
vt 0.500000 0.000000
vt 1.000000 0.000000
vt 1.000000 1.000000
vt 0.000000 0.333333
vt 0.000000 0.000000
vt 0.500000 0.000000
vt 0.500000 0.333333
vt 0.000000 0.333333
vt 0.000000 0.000000
vt 0.500000 0.333333
vt 0.500000 1.000000
vt 0.500000 0.000000
vt 1.000000 0.000000
vt 1.000000 1.000000
vt 0.000000 0.333333
vt 0.000000 0.000000
vt 0.500000 0.000000
vt 0.500000 0.333333
vt 0.000000 0.333333
vt 0.000000 0.000000
vt 0.500000 0.000000
vt 0.500000 0.333333
vt 0.000000 1.000000
vt 0.000000 0.666667
vt 0.500000 0.666667
vt 0.500000 1.000000
vt 0.000000 1.000000
vt 0.000000 0.666667
vt 0.500000 0.666667
vt 0.500000 1.000000
vt 0.000000 1.000000
vt 0.000000 0.666667
vt 0.500000 0.666667
vt 0.000000 1.000000
vt 0.000000 0.666667
vt 0.500000 0.666667
vt 0.500000 1.000000
vn -1.0000 -0.0000 -0.0000
vn -0.0000 -0.0000 1.0000
vn -0.0000 -1.0000 -0.0000
vn -0.0000 1.0000 0.0000
vn 0.0000 0.0000 -1.0000
vn 0.9952 0.0976 0.0000
vn 0.6760 0.7369 0.0000
vn -0.9979 0.0650 -0.0000
vn -0.7870 -0.6170 -0.0000
usemtl PowerWire
s off
f 1/1/1 5/2/1 7/3/1 3/4/1
f 13/5/2 3/6/2 7/7/2 12/8/2
f 12/9/3 7/10/3 5/2/3 15/11/3
f 6/12/3 2/13/3 4/14/3 8/15/3
f 9/16/4 1/17/4 3/18/4 13/19/4
f 15/20/5 5/21/5 1/22/5 9/23/5
f 6/24/5 16/25/5 10/26/5 2/27/5
f 16/25/5 15/20/5 9/23/5 10/26/5
f 2/28/6 10/29/6 14/30/6 4/31/6
f 10/29/7 9/16/7 13/19/7 14/30/7
f 8/32/8 11/33/8 16/34/8 6/12/8
f 11/33/9 12/9/9 15/11/9 16/34/9
f 4/35/2 14/36/2 11/37/2 8/38/2
f 14/36/2 13/5/2 12/8/2 11/37/2
