[api-updater (non-obsolete-error-filter)] 4/18/2021 9:42:26 PM : Starting C:/Program Files/Unity/Hub/Editor/2020.3.4f1/Editor/Data/Tools/ScriptUpdater/APIUpdater.NonObsoleteApiUpdaterDetector.exe
[api-updater (non-obsolete-error-filter)] Exception caught while loading types from E:\Unity Projects\thankyouvrb\Library\ScriptAssemblies\Unity.TextMeshPro.Editor.dll (some types may not be loaded)
	Exception of type 'System.Reflection.ReflectionTypeLoadException' was thrown.
	  at (wrapper managed-to-native) System.Reflection.Assembly.GetTypes(System.Reflection.Assembly,bool)
  at System.Reflection.Assembly.GetTypes () [0x00000] in <695d1cc93cca45069c528c15c9fdd749>:0 
  at APIUpdater.NonObsoleteApiUpdaterDetector.ExtraInfoParser+<LoadTypesWithMovedFromAttributeAsync>d__3.MoveNext () [0x000c8] in <68bff7873e0e4aa69a14dfc30bebbe3e>:0 
	Could not load file or assembly 'UnityEditor.CoreModule, Version=0.0.0.0, Culture=neutral, PublicKeyToken=null' or one of its dependencies.

[api-updater (non-obsolete-error-filter)] 
----------------------------------
jit/startup time      : 396.3591ms
moved types parse time: 52ms
candidates parse time : 1ms
C# parse time         : 464ms
candidates check time : 89ms
console write time    : 0ms

[api-updater (non-obsolete-error-filter)] 4/18/2021 9:42:42 PM : Starting C:/Program Files/Unity/Hub/Editor/2020.3.4f1/Editor/Data/Tools/ScriptUpdater/APIUpdater.NonObsoleteApiUpdaterDetector.exe
[api-updater (non-obsolete-error-filter)] Exception caught while loading types from E:\Unity Projects\thankyouvrb\Library\ScriptAssemblies\Unity.TextMeshPro.Editor.dll (some types may not be loaded)
	Exception of type 'System.Reflection.ReflectionTypeLoadException' was thrown.
	  at (wrapper managed-to-native) System.Reflection.Assembly.GetTypes(System.Reflection.Assembly,bool)
  at System.Reflection.Assembly.GetTypes () [0x00000] in <695d1cc93cca45069c528c15c9fdd749>:0 
  at APIUpdater.NonObsoleteApiUpdaterDetector.ExtraInfoParser+<LoadTypesWithMovedFromAttributeAsync>d__3.MoveNext () [0x000c8] in <68bff7873e0e4aa69a14dfc30bebbe3e>:0 
	Could not load file or assembly 'UnityEditor.CoreModule, Version=0.0.0.0, Culture=neutral, PublicKeyToken=null' or one of its dependencies.

[api-updater (non-obsolete-error-filter)] 
----------------------------------
jit/startup time      : 54.0489ms
moved types parse time: 50ms
candidates parse time : 1ms
C# parse time         : 200ms
candidates check time : 40ms
console write time    : 0ms

[api-updater (non-obsolete-error-filter)] 4/18/2021 9:42:47 PM : Starting C:/Program Files/Unity/Hub/Editor/2020.3.4f1/Editor/Data/Tools/ScriptUpdater/APIUpdater.NonObsoleteApiUpdaterDetector.exe
[api-updater (non-obsolete-error-filter)] Exception caught while loading types from E:\Unity Projects\thankyouvrb\Library\ScriptAssemblies\Unity.TextMeshPro.Editor.dll (some types may not be loaded)
	Exception of type 'System.Reflection.ReflectionTypeLoadException' was thrown.
	  at (wrapper managed-to-native) System.Reflection.Assembly.GetTypes(System.Reflection.Assembly,bool)
  at System.Reflection.Assembly.GetTypes () [0x00000] in <695d1cc93cca45069c528c15c9fdd749>:0 
  at APIUpdater.NonObsoleteApiUpdaterDetector.ExtraInfoParser+<LoadTypesWithMovedFromAttributeAsync>d__3.MoveNext () [0x000c8] in <68bff7873e0e4aa69a14dfc30bebbe3e>:0 
	Could not load file or assembly 'UnityEditor.CoreModule, Version=0.0.0.0, Culture=neutral, PublicKeyToken=null' or one of its dependencies.

[api-updater (non-obsolete-error-filter)] 
----------------------------------
jit/startup time      : 53.0484ms
moved types parse time: 51ms
candidates parse time : 1ms
C# parse time         : 210ms
candidates check time : 39ms
console write time    : 0ms

[api-updater (non-obsolete-error-filter)] 4/18/2021 9:43:01 PM : Starting C:/Program Files/Unity/Hub/Editor/2020.3.4f1/Editor/Data/Tools/ScriptUpdater/APIUpdater.NonObsoleteApiUpdaterDetector.exe
[api-updater (non-obsolete-error-filter)] Exception caught while loading types from E:\Unity Projects\thankyouvrb\Library\ScriptAssemblies\Unity.TextMeshPro.Editor.dll (some types may not be loaded)
	Exception of type 'System.Reflection.ReflectionTypeLoadException' was thrown.
	  at (wrapper managed-to-native) System.Reflection.Assembly.GetTypes(System.Reflection.Assembly,bool)
  at System.Reflection.Assembly.GetTypes () [0x00000] in <695d1cc93cca45069c528c15c9fdd749>:0 
  at APIUpdater.NonObsoleteApiUpdaterDetector.ExtraInfoParser+<LoadTypesWithMovedFromAttributeAsync>d__3.MoveNext () [0x000c8] in <68bff7873e0e4aa69a14dfc30bebbe3e>:0 
	Could not load file or assembly 'UnityEditor.CoreModule, Version=0.0.0.0, Culture=neutral, PublicKeyToken=null' or one of its dependencies.

[api-updater (non-obsolete-error-filter)] 
----------------------------------
jit/startup time      : 55.0501ms
moved types parse time: 53ms
candidates parse time : 1ms
C# parse time         : 216ms
candidates check time : 82ms
console write time    : 0ms

[api-updater (non-obsolete-error-filter)] 4/18/2021 9:43:14 PM : Starting C:/Program Files/Unity/Hub/Editor/2020.3.4f1/Editor/Data/Tools/ScriptUpdater/APIUpdater.NonObsoleteApiUpdaterDetector.exe
[api-updater (non-obsolete-error-filter)] Exception caught while loading types from E:\Unity Projects\thankyouvrb\Library\ScriptAssemblies\Unity.TextMeshPro.Editor.dll (some types may not be loaded)
	Exception of type 'System.Reflection.ReflectionTypeLoadException' was thrown.
	  at (wrapper managed-to-native) System.Reflection.Assembly.GetTypes(System.Reflection.Assembly,bool)
  at System.Reflection.Assembly.GetTypes () [0x00000] in <695d1cc93cca45069c528c15c9fdd749>:0 
  at APIUpdater.NonObsoleteApiUpdaterDetector.ExtraInfoParser+<LoadTypesWithMovedFromAttributeAsync>d__3.MoveNext () [0x000c8] in <68bff7873e0e4aa69a14dfc30bebbe3e>:0 
	Could not load file or assembly 'UnityEditor.CoreModule, Version=0.0.0.0, Culture=neutral, PublicKeyToken=null' or one of its dependencies.

[api-updater (non-obsolete-error-filter)] 
----------------------------------
jit/startup time      : 54.5565ms
moved types parse time: 51ms
candidates parse time : 1ms
C# parse time         : 230ms
candidates check time : 75ms
console write time    : 0ms

[api-updater (non-obsolete-error-filter)] 4/18/2021 9:43:24 PM : Starting C:/Program Files/Unity/Hub/Editor/2020.3.4f1/Editor/Data/Tools/ScriptUpdater/APIUpdater.NonObsoleteApiUpdaterDetector.exe
[api-updater (non-obsolete-error-filter)] Exception caught while loading types from E:\Unity Projects\thankyouvrb\Library\ScriptAssemblies\Unity.TextMeshPro.Editor.dll (some types may not be loaded)
	Exception of type 'System.Reflection.ReflectionTypeLoadException' was thrown.
	  at (wrapper managed-to-native) System.Reflection.Assembly.GetTypes(System.Reflection.Assembly,bool)
  at System.Reflection.Assembly.GetTypes () [0x00000] in <695d1cc93cca45069c528c15c9fdd749>:0 
  at APIUpdater.NonObsoleteApiUpdaterDetector.ExtraInfoParser+<LoadTypesWithMovedFromAttributeAsync>d__3.MoveNext () [0x000c8] in <68bff7873e0e4aa69a14dfc30bebbe3e>:0 
	Could not load file or assembly 'UnityEditor.CoreModule, Version=0.0.0.0, Culture=neutral, PublicKeyToken=null' or one of its dependencies.

[api-updater (non-obsolete-error-filter)] 
----------------------------------
jit/startup time      : 55.0491ms
moved types parse time: 53ms
candidates parse time : 1ms
C# parse time         : 211ms
candidates check time : 71ms
console write time    : 0ms

[api-updater (non-obsolete-error-filter)] 4/18/2021 9:51:03 PM : Starting C:/Program Files/Unity/Hub/Editor/2020.3.4f1/Editor/Data/Tools/ScriptUpdater/APIUpdater.NonObsoleteApiUpdaterDetector.exe
[api-updater (non-obsolete-error-filter)] 
----------------------------------
jit/startup time      : 153.1383ms
moved types parse time: 52ms
candidates parse time : 13ms
C# parse time         : 206ms
candidates check time : 163ms
console write time    : 0ms

[api-updater (non-obsolete-error-filter)] 4/18/2021 9:51:07 PM : Starting C:/Program Files/Unity/Hub/Editor/2020.3.4f1/Editor/Data/Tools/ScriptUpdater/APIUpdater.NonObsoleteApiUpdaterDetector.exe
[api-updater (non-obsolete-error-filter)] 
----------------------------------
jit/startup time      : 57.0507ms
moved types parse time: 55ms
candidates parse time : 12ms
C# parse time         : 195ms
candidates check time : 152ms
console write time    : 0ms

[api-updater (non-obsolete-error-filter)] 4/18/2021 9:53:09 PM : Starting C:/Program Files/Unity/Hub/Editor/2020.3.4f1/Editor/Data/Tools/ScriptUpdater/APIUpdater.NonObsoleteApiUpdaterDetector.exe
[api-updater (non-obsolete-error-filter)] 
----------------------------------
jit/startup time      : 57.0529ms
moved types parse time: 55ms
candidates parse time : 15ms
C# parse time         : 188ms
candidates check time : 171ms
console write time    : 0ms

[api-updater (non-obsolete-error-filter)] 4/18/2021 9:54:01 PM : Starting C:/Program Files/Unity/Hub/Editor/2020.3.4f1/Editor/Data/Tools/ScriptUpdater/APIUpdater.NonObsoleteApiUpdaterDetector.exe
[api-updater (non-obsolete-error-filter)] 
----------------------------------
jit/startup time      : 55.0573ms
moved types parse time: 56ms
candidates parse time : 11ms
C# parse time         : 202ms
candidates check time : 149ms
console write time    : 0ms

[api-updater (non-obsolete-error-filter)] 4/18/2021 9:56:44 PM : Starting C:/Program Files/Unity/Hub/Editor/2020.3.4f1/Editor/Data/Tools/ScriptUpdater/APIUpdater.NonObsoleteApiUpdaterDetector.exe
[api-updater (non-obsolete-error-filter)] Exception caught while loading types from E:\Unity Projects\thankyouvrb\Library\ScriptAssemblies\Unity.TextMeshPro.Editor.dll (some types may not be loaded)
	Exception of type 'System.Reflection.ReflectionTypeLoadException' was thrown.
	  at (wrapper managed-to-native) System.Reflection.Assembly.GetTypes(System.Reflection.Assembly,bool)
  at System.Reflection.Assembly.GetTypes () [0x00000] in <695d1cc93cca45069c528c15c9fdd749>:0 
  at APIUpdater.NonObsoleteApiUpdaterDetector.ExtraInfoParser+<LoadTypesWithMovedFromAttributeAsync>d__3.MoveNext () [0x000c8] in <68bff7873e0e4aa69a14dfc30bebbe3e>:0 
	Could not load file or assembly 'UnityEditor.CoreModule, Version=0.0.0.0, Culture=neutral, PublicKeyToken=null' or one of its dependencies.

[api-updater (non-obsolete-error-filter)] 
----------------------------------
jit/startup time      : 57.0533ms
moved types parse time: 55ms
candidates parse time : 12ms
C# parse time         : 215ms
candidates check time : 162ms
console write time    : 0ms

[api-updater (non-obsolete-error-filter)] 4/18/2021 9:57:57 PM : Starting C:/Program Files/Unity/Hub/Editor/2020.3.4f1/Editor/Data/Tools/ScriptUpdater/APIUpdater.NonObsoleteApiUpdaterDetector.exe
[api-updater (non-obsolete-error-filter)] 
----------------------------------
jit/startup time      : 67.0604ms
moved types parse time: 55ms
candidates parse time : 13ms
C# parse time         : 1230ms
candidates check time : 157ms
console write time    : 0ms

[api-updater (non-obsolete-error-filter)] 4/18/2021 9:58:07 PM : Starting C:/Program Files/Unity/Hub/Editor/2020.3.4f1/Editor/Data/Tools/ScriptUpdater/APIUpdater.NonObsoleteApiUpdaterDetector.exe
[api-updater (non-obsolete-error-filter)] 
----------------------------------
jit/startup time      : 61.055ms
moved types parse time: 53ms
candidates parse time : 1ms
C# parse time         : 193ms
candidates check time : 41ms
console write time    : 0ms

[api-updater (non-obsolete-error-filter)] 4/18/2021 9:58:43 PM : Starting C:/Program Files/Unity/Hub/Editor/2020.3.4f1/Editor/Data/Tools/ScriptUpdater/APIUpdater.NonObsoleteApiUpdaterDetector.exe
[api-updater (non-obsolete-error-filter)] 
----------------------------------
jit/startup time      : 55.051ms
moved types parse time: 53ms
candidates parse time : 11ms
C# parse time         : 206ms
candidates check time : 152ms
console write time    : 0ms

[api-updater (non-obsolete-error-filter)] 4/23/2021 10:14:31 AM : Starting C:/Program Files/Unity/Hub/Editor/2020.3.4f1/Editor/Data/Tools/ScriptUpdater/APIUpdater.NonObsoleteApiUpdaterDetector.exe
[api-updater (non-obsolete-error-filter)] Exception caught while loading types from E:\Unity Projects\thankyouvrb\Library\ScriptAssemblies\Unity.TextMeshPro.Editor.dll (some types may not be loaded)
	Exception of type 'System.Reflection.ReflectionTypeLoadException' was thrown.
	  at (wrapper managed-to-native) System.Reflection.Assembly.GetTypes(System.Reflection.Assembly,bool)
  at System.Reflection.Assembly.GetTypes () [0x00000] in <695d1cc93cca45069c528c15c9fdd749>:0 
  at APIUpdater.NonObsoleteApiUpdaterDetector.ExtraInfoParser+<LoadTypesWithMovedFromAttributeAsync>d__3.MoveNext () [0x000c8] in <68bff7873e0e4aa69a14dfc30bebbe3e>:0 
	Could not load file or assembly 'UnityEditor.CoreModule, Version=0.0.0.0, Culture=neutral, PublicKeyToken=null' or one of its dependencies.

[api-updater (non-obsolete-error-filter)] 
----------------------------------
jit/startup time      : 4628.3904ms
moved types parse time: 52ms
candidates parse time : 1ms
C# parse time         : 371ms
candidates check time : 61ms
console write time    : 0ms

[api-updater (non-obsolete-error-filter)] 4/23/2021 10:03:11 PM : Starting C:/Program Files/Unity/Hub/Editor/2020.3.4f1/Editor/Data/Tools/ScriptUpdater/APIUpdater.NonObsoleteApiUpdaterDetector.exe
[api-updater (non-obsolete-error-filter)] 
----------------------------------
jit/startup time      : 91.0824ms
moved types parse time: 51ms
candidates parse time : 1ms
C# parse time         : 218ms
candidates check time : 50ms
console write time    : 0ms

[api-updater (non-obsolete-error-filter)] 4/23/2021 10:03:35 PM : Starting C:/Program Files/Unity/Hub/Editor/2020.3.4f1/Editor/Data/Tools/ScriptUpdater/APIUpdater.NonObsoleteApiUpdaterDetector.exe
[api-updater (non-obsolete-error-filter)] 
----------------------------------
jit/startup time      : 56.0507ms
moved types parse time: 54ms
candidates parse time : 1ms
C# parse time         : 217ms
candidates check time : 56ms
console write time    : 0ms

[api-updater (non-obsolete-error-filter)] 4/23/2021 10:03:42 PM : Starting C:/Program Files/Unity/Hub/Editor/2020.3.4f1/Editor/Data/Tools/ScriptUpdater/APIUpdater.NonObsoleteApiUpdaterDetector.exe
[api-updater (non-obsolete-error-filter)] 
----------------------------------
jit/startup time      : 54.7954ms
moved types parse time: 51ms
candidates parse time : 1ms
C# parse time         : 214ms
candidates check time : 52ms
console write time    : 0ms

[api-updater (non-obsolete-error-filter)] 4/23/2021 10:04:19 PM : Starting C:/Program Files/Unity/Hub/Editor/2020.3.4f1/Editor/Data/Tools/ScriptUpdater/APIUpdater.NonObsoleteApiUpdaterDetector.exe
[api-updater (non-obsolete-error-filter)] 
----------------------------------
jit/startup time      : 56.0511ms
moved types parse time: 52ms
candidates parse time : 1ms
C# parse time         : 190ms
candidates check time : 57ms
console write time    : 0ms

[api-updater (non-obsolete-error-filter)] 4/23/2021 10:04:30 PM : Starting C:/Program Files/Unity/Hub/Editor/2020.3.4f1/Editor/Data/Tools/ScriptUpdater/APIUpdater.NonObsoleteApiUpdaterDetector.exe
[api-updater (non-obsolete-error-filter)] 
----------------------------------
jit/startup time      : 55.0498ms
moved types parse time: 60ms
candidates parse time : 1ms
C# parse time         : 210ms
candidates check time : 57ms
console write time    : 0ms

[api-updater (non-obsolete-error-filter)] 4/23/2021 10:04:37 PM : Starting C:/Program Files/Unity/Hub/Editor/2020.3.4f1/Editor/Data/Tools/ScriptUpdater/APIUpdater.NonObsoleteApiUpdaterDetector.exe
[api-updater (non-obsolete-error-filter)] 
----------------------------------
jit/startup time      : 58.0527ms
moved types parse time: 51ms
candidates parse time : 1ms
C# parse time         : 201ms
candidates check time : 55ms
console write time    : 0ms

[api-updater (non-obsolete-error-filter)] 4/23/2021 10:04:52 PM : Starting C:/Program Files/Unity/Hub/Editor/2020.3.4f1/Editor/Data/Tools/ScriptUpdater/APIUpdater.NonObsoleteApiUpdaterDetector.exe
[api-updater (non-obsolete-error-filter)] 
----------------------------------
jit/startup time      : 57.9893ms
moved types parse time: 51ms
candidates parse time : 1ms
C# parse time         : 214ms
candidates check time : 68ms
console write time    : 0ms

[api-updater (non-obsolete-error-filter)] 4/23/2021 10:04:56 PM : Starting C:/Program Files/Unity/Hub/Editor/2020.3.4f1/Editor/Data/Tools/ScriptUpdater/APIUpdater.NonObsoleteApiUpdaterDetector.exe
[api-updater (non-obsolete-error-filter)] 
----------------------------------
jit/startup time      : 54.0485ms
moved types parse time: 52ms
candidates parse time : 1ms
C# parse time         : 197ms
candidates check time : 59ms
console write time    : 0ms

[api-updater (non-obsolete-error-filter)] 4/23/2021 10:05:57 PM : Starting C:/Program Files/Unity/Hub/Editor/2020.3.4f1/Editor/Data/Tools/ScriptUpdater/APIUpdater.NonObsoleteApiUpdaterDetector.exe
[api-updater (non-obsolete-error-filter)] 
----------------------------------
jit/startup time      : 55.0511ms
moved types parse time: 51ms
candidates parse time : 1ms
C# parse time         : 191ms
candidates check time : 57ms
console write time    : 0ms

[api-updater (non-obsolete-error-filter)] 4/23/2021 10:06:10 PM : Starting C:/Program Files/Unity/Hub/Editor/2020.3.4f1/Editor/Data/Tools/ScriptUpdater/APIUpdater.NonObsoleteApiUpdaterDetector.exe
[api-updater (non-obsolete-error-filter)] 
----------------------------------
jit/startup time      : 54.0486ms
moved types parse time: 51ms
candidates parse time : 1ms
C# parse time         : 194ms
candidates check time : 55ms
console write time    : 0ms

[api-updater (non-obsolete-error-filter)] 4/23/2021 10:07:17 PM : Starting C:/Program Files/Unity/Hub/Editor/2020.3.4f1/Editor/Data/Tools/ScriptUpdater/APIUpdater.NonObsoleteApiUpdaterDetector.exe
[api-updater (non-obsolete-error-filter)] 
----------------------------------
jit/startup time      : 53.0827ms
moved types parse time: 53ms
candidates parse time : 1ms
C# parse time         : 199ms
candidates check time : 59ms
console write time    : 0ms

[api-updater (non-obsolete-error-filter)] 4/23/2021 10:07:54 PM : Starting C:/Program Files/Unity/Hub/Editor/2020.3.4f1/Editor/Data/Tools/ScriptUpdater/APIUpdater.NonObsoleteApiUpdaterDetector.exe
[api-updater (non-obsolete-error-filter)] 
----------------------------------
jit/startup time      : 55.9004ms
moved types parse time: 56ms
candidates parse time : 1ms
C# parse time         : 198ms
candidates check time : 65ms
console write time    : 0ms

[api-updater (non-obsolete-error-filter)] 4/23/2021 10:08:00 PM : Starting C:/Program Files/Unity/Hub/Editor/2020.3.4f1/Editor/Data/Tools/ScriptUpdater/APIUpdater.NonObsoleteApiUpdaterDetector.exe
[api-updater (non-obsolete-error-filter)] 
----------------------------------
jit/startup time      : 55.0504ms
moved types parse time: 51ms
candidates parse time : 1ms
C# parse time         : 195ms
candidates check time : 65ms
console write time    : 0ms

[api-updater (non-obsolete-error-filter)] 4/23/2021 10:08:44 PM : Starting C:/Program Files/Unity/Hub/Editor/2020.3.4f1/Editor/Data/Tools/ScriptUpdater/APIUpdater.NonObsoleteApiUpdaterDetector.exe
[api-updater (non-obsolete-error-filter)] 
----------------------------------
jit/startup time      : 59.032ms
moved types parse time: 52ms
candidates parse time : 1ms
C# parse time         : 198ms
candidates check time : 63ms
console write time    : 0ms

[api-updater (non-obsolete-error-filter)] 4/23/2021 10:09:14 PM : Starting C:/Program Files/Unity/Hub/Editor/2020.3.4f1/Editor/Data/Tools/ScriptUpdater/APIUpdater.NonObsoleteApiUpdaterDetector.exe
[api-updater (non-obsolete-error-filter)] 
----------------------------------
jit/startup time      : 54.0493ms
moved types parse time: 56ms
candidates parse time : 1ms
C# parse time         : 198ms
candidates check time : 65ms
console write time    : 0ms

[api-updater (non-obsolete-error-filter)] 4/23/2021 10:11:12 PM : Starting C:/Program Files/Unity/Hub/Editor/2020.3.4f1/Editor/Data/Tools/ScriptUpdater/APIUpdater.NonObsoleteApiUpdaterDetector.exe
[api-updater (non-obsolete-error-filter)] 
----------------------------------
jit/startup time      : 56.0526ms
moved types parse time: 53ms
candidates parse time : 1ms
C# parse time         : 197ms
candidates check time : 62ms
console write time    : 0ms

[api-updater (non-obsolete-error-filter)] 4/23/2021 10:11:24 PM : Starting C:/Program Files/Unity/Hub/Editor/2020.3.4f1/Editor/Data/Tools/ScriptUpdater/APIUpdater.NonObsoleteApiUpdaterDetector.exe
[api-updater (non-obsolete-error-filter)] 
----------------------------------
jit/startup time      : 55.0501ms
moved types parse time: 51ms
candidates parse time : 1ms
C# parse time         : 190ms
candidates check time : 66ms
console write time    : 0ms

[api-updater (non-obsolete-error-filter)] 4/23/2021 10:11:51 PM : Starting C:/Program Files/Unity/Hub/Editor/2020.3.4f1/Editor/Data/Tools/ScriptUpdater/APIUpdater.NonObsoleteApiUpdaterDetector.exe
[api-updater (non-obsolete-error-filter)] 
----------------------------------
jit/startup time      : 55.0497ms
moved types parse time: 60ms
candidates parse time : 1ms
C# parse time         : 196ms
candidates check time : 65ms
console write time    : 0ms

[api-updater (non-obsolete-error-filter)] 4/23/2021 10:11:54 PM : Starting C:/Program Files/Unity/Hub/Editor/2020.3.4f1/Editor/Data/Tools/ScriptUpdater/APIUpdater.NonObsoleteApiUpdaterDetector.exe
[api-updater (non-obsolete-error-filter)] 
----------------------------------
jit/startup time      : 57.0516ms
moved types parse time: 55ms
candidates parse time : 1ms
C# parse time         : 224ms
candidates check time : 72ms
console write time    : 0ms

[api-updater (non-obsolete-error-filter)] 4/23/2021 10:11:57 PM : Starting C:/Program Files/Unity/Hub/Editor/2020.3.4f1/Editor/Data/Tools/ScriptUpdater/APIUpdater.NonObsoleteApiUpdaterDetector.exe
[api-updater (non-obsolete-error-filter)] 
----------------------------------
jit/startup time      : 55.0503ms
moved types parse time: 52ms
candidates parse time : 1ms
C# parse time         : 192ms
candidates check time : 59ms
console write time    : 0ms

[api-updater (non-obsolete-error-filter)] 4/23/2021 10:12:06 PM : Starting C:/Program Files/Unity/Hub/Editor/2020.3.4f1/Editor/Data/Tools/ScriptUpdater/APIUpdater.NonObsoleteApiUpdaterDetector.exe
[api-updater (non-obsolete-error-filter)] 
----------------------------------
jit/startup time      : 53.7451ms
moved types parse time: 51ms
candidates parse time : 1ms
C# parse time         : 192ms
candidates check time : 58ms
console write time    : 0ms

[api-updater (non-obsolete-error-filter)] 4/23/2021 10:12:09 PM : Starting C:/Program Files/Unity/Hub/Editor/2020.3.4f1/Editor/Data/Tools/ScriptUpdater/APIUpdater.NonObsoleteApiUpdaterDetector.exe
[api-updater (non-obsolete-error-filter)] 
----------------------------------
jit/startup time      : 53.9039ms
moved types parse time: 50ms
candidates parse time : 1ms
C# parse time         : 190ms
candidates check time : 54ms
console write time    : 0ms

[api-updater (non-obsolete-error-filter)] 4/23/2021 10:12:15 PM : Starting C:/Program Files/Unity/Hub/Editor/2020.3.4f1/Editor/Data/Tools/ScriptUpdater/APIUpdater.NonObsoleteApiUpdaterDetector.exe
[api-updater (non-obsolete-error-filter)] 
----------------------------------
jit/startup time      : 54.1101ms
moved types parse time: 53ms
candidates parse time : 1ms
C# parse time         : 195ms
candidates check time : 64ms
console write time    : 0ms

[api-updater (non-obsolete-error-filter)] 4/23/2021 10:12:52 PM : Starting C:/Program Files/Unity/Hub/Editor/2020.3.4f1/Editor/Data/Tools/ScriptUpdater/APIUpdater.NonObsoleteApiUpdaterDetector.exe
[api-updater (non-obsolete-error-filter)] 
----------------------------------
jit/startup time      : 53.0479ms
moved types parse time: 50ms
candidates parse time : 1ms
C# parse time         : 191ms
candidates check time : 63ms
console write time    : 0ms

[api-updater (non-obsolete-error-filter)] 4/23/2021 10:13:19 PM : Starting C:/Program Files/Unity/Hub/Editor/2020.3.4f1/Editor/Data/Tools/ScriptUpdater/APIUpdater.NonObsoleteApiUpdaterDetector.exe
[api-updater (non-obsolete-error-filter)] 
----------------------------------
jit/startup time      : 59.054ms
moved types parse time: 54ms
candidates parse time : 1ms
C# parse time         : 194ms
candidates check time : 64ms
console write time    : 0ms

[api-updater (non-obsolete-error-filter)] 4/23/2021 10:13:33 PM : Starting C:/Program Files/Unity/Hub/Editor/2020.3.4f1/Editor/Data/Tools/ScriptUpdater/APIUpdater.NonObsoleteApiUpdaterDetector.exe
[api-updater (non-obsolete-error-filter)] 
----------------------------------
jit/startup time      : 54.0489ms
moved types parse time: 50ms
candidates parse time : 1ms
C# parse time         : 195ms
candidates check time : 65ms
console write time    : 0ms

[api-updater (non-obsolete-error-filter)] 4/23/2021 10:13:49 PM : Starting C:/Program Files/Unity/Hub/Editor/2020.3.4f1/Editor/Data/Tools/ScriptUpdater/APIUpdater.NonObsoleteApiUpdaterDetector.exe
[api-updater (non-obsolete-error-filter)] 
----------------------------------
jit/startup time      : 54.0499ms
moved types parse time: 53ms
candidates parse time : 1ms
C# parse time         : 192ms
candidates check time : 64ms
console write time    : 0ms

[api-updater (non-obsolete-error-filter)] 4/23/2021 10:14:31 PM : Starting C:/Program Files/Unity/Hub/Editor/2020.3.4f1/Editor/Data/Tools/ScriptUpdater/APIUpdater.NonObsoleteApiUpdaterDetector.exe
[api-updater (non-obsolete-error-filter)] 
----------------------------------
jit/startup time      : 54.0539ms
moved types parse time: 51ms
candidates parse time : 1ms
C# parse time         : 189ms
candidates check time : 64ms
console write time    : 0ms

[api-updater (non-obsolete-error-filter)] 4/23/2021 10:14:52 PM : Starting C:/Program Files/Unity/Hub/Editor/2020.3.4f1/Editor/Data/Tools/ScriptUpdater/APIUpdater.NonObsoleteApiUpdaterDetector.exe
[api-updater (non-obsolete-error-filter)] 
----------------------------------
jit/startup time      : 54.0498ms
moved types parse time: 51ms
candidates parse time : 1ms
C# parse time         : 193ms
candidates check time : 62ms
console write time    : 0ms

[api-updater (non-obsolete-error-filter)] 4/23/2021 10:14:54 PM : Starting C:/Program Files/Unity/Hub/Editor/2020.3.4f1/Editor/Data/Tools/ScriptUpdater/APIUpdater.NonObsoleteApiUpdaterDetector.exe
[api-updater (non-obsolete-error-filter)] 
----------------------------------
jit/startup time      : 53.0487ms
moved types parse time: 50ms
candidates parse time : 1ms
C# parse time         : 189ms
candidates check time : 65ms
console write time    : 0ms

[api-updater (non-obsolete-error-filter)] 4/23/2021 10:15:01 PM : Starting C:/Program Files/Unity/Hub/Editor/2020.3.4f1/Editor/Data/Tools/ScriptUpdater/APIUpdater.NonObsoleteApiUpdaterDetector.exe
[api-updater (non-obsolete-error-filter)] 
----------------------------------
jit/startup time      : 53.0486ms
moved types parse time: 51ms
candidates parse time : 1ms
C# parse time         : 195ms
candidates check time : 63ms
console write time    : 0ms

[api-updater (non-obsolete-error-filter)] 4/23/2021 10:15:36 PM : Starting C:/Program Files/Unity/Hub/Editor/2020.3.4f1/Editor/Data/Tools/ScriptUpdater/APIUpdater.NonObsoleteApiUpdaterDetector.exe
[api-updater (non-obsolete-error-filter)] 
----------------------------------
jit/startup time      : 53.066ms
moved types parse time: 52ms
candidates parse time : 1ms
C# parse time         : 196ms
candidates check time : 61ms
console write time    : 0ms

[api-updater (non-obsolete-error-filter)] 4/23/2021 10:15:48 PM : Starting C:/Program Files/Unity/Hub/Editor/2020.3.4f1/Editor/Data/Tools/ScriptUpdater/APIUpdater.NonObsoleteApiUpdaterDetector.exe
[api-updater (non-obsolete-error-filter)] 
----------------------------------
jit/startup time      : 53.6091ms
moved types parse time: 54ms
candidates parse time : 1ms
C# parse time         : 189ms
candidates check time : 62ms
console write time    : 0ms

[api-updater (non-obsolete-error-filter)] 4/23/2021 10:15:53 PM : Starting C:/Program Files/Unity/Hub/Editor/2020.3.4f1/Editor/Data/Tools/ScriptUpdater/APIUpdater.NonObsoleteApiUpdaterDetector.exe
[api-updater (non-obsolete-error-filter)] 
----------------------------------
jit/startup time      : 52.969ms
moved types parse time: 51ms
candidates parse time : 1ms
C# parse time         : 191ms
candidates check time : 62ms
console write time    : 0ms

[api-updater (non-obsolete-error-filter)] 4/23/2021 10:16:04 PM : Starting C:/Program Files/Unity/Hub/Editor/2020.3.4f1/Editor/Data/Tools/ScriptUpdater/APIUpdater.NonObsoleteApiUpdaterDetector.exe
[api-updater (non-obsolete-error-filter)] 
----------------------------------
jit/startup time      : 53.2443ms
moved types parse time: 51ms
candidates parse time : 1ms
C# parse time         : 198ms
candidates check time : 64ms
console write time    : 0ms

[api-updater (non-obsolete-error-filter)] 4/23/2021 10:16:13 PM : Starting C:/Program Files/Unity/Hub/Editor/2020.3.4f1/Editor/Data/Tools/ScriptUpdater/APIUpdater.NonObsoleteApiUpdaterDetector.exe
[api-updater (non-obsolete-error-filter)] 
----------------------------------
jit/startup time      : 56.0513ms
moved types parse time: 52ms
candidates parse time : 1ms
C# parse time         : 202ms
candidates check time : 65ms
console write time    : 0ms

[api-updater (non-obsolete-error-filter)] 4/23/2021 10:16:57 PM : Starting C:/Program Files/Unity/Hub/Editor/2020.3.4f1/Editor/Data/Tools/ScriptUpdater/APIUpdater.NonObsoleteApiUpdaterDetector.exe
[api-updater (non-obsolete-error-filter)] 
----------------------------------
jit/startup time      : 54.0495ms
moved types parse time: 51ms
candidates parse time : 1ms
C# parse time         : 191ms
candidates check time : 63ms
console write time    : 0ms

[api-updater (non-obsolete-error-filter)] 4/23/2021 10:17:09 PM : Starting C:/Program Files/Unity/Hub/Editor/2020.3.4f1/Editor/Data/Tools/ScriptUpdater/APIUpdater.NonObsoleteApiUpdaterDetector.exe
[api-updater (non-obsolete-error-filter)] 
----------------------------------
jit/startup time      : 54.0493ms
moved types parse time: 50ms
candidates parse time : 1ms
C# parse time         : 190ms
candidates check time : 62ms
console write time    : 0ms

[api-updater (non-obsolete-error-filter)] 4/23/2021 10:17:25 PM : Starting C:/Program Files/Unity/Hub/Editor/2020.3.4f1/Editor/Data/Tools/ScriptUpdater/APIUpdater.NonObsoleteApiUpdaterDetector.exe
[api-updater (non-obsolete-error-filter)] 
----------------------------------
jit/startup time      : 55.05ms
moved types parse time: 50ms
candidates parse time : 1ms
C# parse time         : 188ms
candidates check time : 62ms
console write time    : 0ms

[api-updater (non-obsolete-error-filter)] 4/23/2021 10:17:32 PM : Starting C:/Program Files/Unity/Hub/Editor/2020.3.4f1/Editor/Data/Tools/ScriptUpdater/APIUpdater.NonObsoleteApiUpdaterDetector.exe
[api-updater (non-obsolete-error-filter)] 
----------------------------------
jit/startup time      : 55.8933ms
moved types parse time: 53ms
candidates parse time : 1ms
C# parse time         : 198ms
candidates check time : 64ms
console write time    : 0ms

[api-updater (non-obsolete-error-filter)] 4/23/2021 10:18:27 PM : Starting C:/Program Files/Unity/Hub/Editor/2020.3.4f1/Editor/Data/Tools/ScriptUpdater/APIUpdater.NonObsoleteApiUpdaterDetector.exe
[api-updater (non-obsolete-error-filter)] 
----------------------------------
jit/startup time      : 55.8703ms
moved types parse time: 51ms
candidates parse time : 1ms
C# parse time         : 194ms
candidates check time : 61ms
console write time    : 0ms

[api-updater (non-obsolete-error-filter)] 4/23/2021 10:26:03 PM : Starting C:/Program Files/Unity/Hub/Editor/2020.3.4f1/Editor/Data/Tools/ScriptUpdater/APIUpdater.NonObsoleteApiUpdaterDetector.exe
[api-updater (non-obsolete-error-filter)] 
----------------------------------
jit/startup time      : 53.9898ms
moved types parse time: 51ms
candidates parse time : 1ms
C# parse time         : 192ms
candidates check time : 63ms
console write time    : 0ms

[api-updater (non-obsolete-error-filter)] 4/23/2021 10:26:13 PM : Starting C:/Program Files/Unity/Hub/Editor/2020.3.4f1/Editor/Data/Tools/ScriptUpdater/APIUpdater.NonObsoleteApiUpdaterDetector.exe
[api-updater (non-obsolete-error-filter)] 
----------------------------------
jit/startup time      : 53.9925ms
moved types parse time: 53ms
candidates parse time : 1ms
C# parse time         : 190ms
candidates check time : 63ms
console write time    : 0ms

[api-updater (non-obsolete-error-filter)] 4/23/2021 10:26:26 PM : Starting C:/Program Files/Unity/Hub/Editor/2020.3.4f1/Editor/Data/Tools/ScriptUpdater/APIUpdater.NonObsoleteApiUpdaterDetector.exe
[api-updater (non-obsolete-error-filter)] 
----------------------------------
jit/startup time      : 55.0535ms
moved types parse time: 51ms
candidates parse time : 1ms
C# parse time         : 193ms
candidates check time : 65ms
console write time    : 0ms

[api-updater (non-obsolete-error-filter)] 4/24/2021 12:03:30 PM : Starting C:/Program Files/Unity/Hub/Editor/2020.3.4f1/Editor/Data/Tools/ScriptUpdater/APIUpdater.NonObsoleteApiUpdaterDetector.exe
[api-updater (non-obsolete-error-filter)] Exception caught while loading types from E:\Unity Projects\thankyouvrb\Library\ScriptAssemblies\Unity.TextMeshPro.Editor.dll (some types may not be loaded)
	Exception of type 'System.Reflection.ReflectionTypeLoadException' was thrown.
	  at (wrapper managed-to-native) System.Reflection.Assembly.GetTypes(System.Reflection.Assembly,bool)
  at System.Reflection.Assembly.GetTypes () [0x00000] in <695d1cc93cca45069c528c15c9fdd749>:0 
  at APIUpdater.NonObsoleteApiUpdaterDetector.ExtraInfoParser+<LoadTypesWithMovedFromAttributeAsync>d__3.MoveNext () [0x000c8] in <68bff7873e0e4aa69a14dfc30bebbe3e>:0 
	Could not load file or assembly 'UnityEditor.CoreModule, Version=0.0.0.0, Culture=neutral, PublicKeyToken=null' or one of its dependencies.

[api-updater (non-obsolete-error-filter)] 
----------------------------------
jit/startup time      : 1306.1794ms
moved types parse time: 54ms
candidates parse time : 1ms
C# parse time         : 317ms
candidates check time : 65ms
console write time    : 0ms

[api-updater (non-obsolete-error-filter)] 4/24/2021 12:30:47 PM : Starting C:/Program Files/Unity/Hub/Editor/2020.3.4f1/Editor/Data/Tools/ScriptUpdater/APIUpdater.NonObsoleteApiUpdaterDetector.exe
[api-updater (non-obsolete-error-filter)] 
----------------------------------
jit/startup time      : 94.0838ms
moved types parse time: 50ms
candidates parse time : 1ms
C# parse time         : 195ms
candidates check time : 63ms
console write time    : 0ms

[api-updater (non-obsolete-error-filter)] 4/24/2021 12:31:16 PM : Starting C:/Program Files/Unity/Hub/Editor/2020.3.4f1/Editor/Data/Tools/ScriptUpdater/APIUpdater.NonObsoleteApiUpdaterDetector.exe
[api-updater (non-obsolete-error-filter)] 
----------------------------------
jit/startup time      : 55.0493ms
moved types parse time: 53ms
candidates parse time : 1ms
C# parse time         : 227ms
candidates check time : 66ms
console write time    : 0ms

[api-updater (non-obsolete-error-filter)] 4/24/2021 12:31:39 PM : Starting C:/Program Files/Unity/Hub/Editor/2020.3.4f1/Editor/Data/Tools/ScriptUpdater/APIUpdater.NonObsoleteApiUpdaterDetector.exe
[api-updater (non-obsolete-error-filter)] 
----------------------------------
jit/startup time      : 55.0491ms
moved types parse time: 54ms
candidates parse time : 1ms
C# parse time         : 206ms
candidates check time : 62ms
console write time    : 0ms

[api-updater (non-obsolete-error-filter)] 4/24/2021 12:31:42 PM : Starting C:/Program Files/Unity/Hub/Editor/2020.3.4f1/Editor/Data/Tools/ScriptUpdater/APIUpdater.NonObsoleteApiUpdaterDetector.exe
[api-updater (non-obsolete-error-filter)] 
----------------------------------
jit/startup time      : 56.051ms
moved types parse time: 52ms
candidates parse time : 1ms
C# parse time         : 241ms
candidates check time : 67ms
console write time    : 0ms

[api-updater (non-obsolete-error-filter)] 4/24/2021 12:32:03 PM : Starting C:/Program Files/Unity/Hub/Editor/2020.3.4f1/Editor/Data/Tools/ScriptUpdater/APIUpdater.NonObsoleteApiUpdaterDetector.exe
[api-updater (non-obsolete-error-filter)] 
----------------------------------
jit/startup time      : 55.0835ms
moved types parse time: 56ms
candidates parse time : 1ms
C# parse time         : 242ms
candidates check time : 66ms
console write time    : 0ms

[api-updater (non-obsolete-error-filter)] 4/24/2021 12:32:26 PM : Starting C:/Program Files/Unity/Hub/Editor/2020.3.4f1/Editor/Data/Tools/ScriptUpdater/APIUpdater.NonObsoleteApiUpdaterDetector.exe
[api-updater (non-obsolete-error-filter)] 
----------------------------------
jit/startup time      : 55.0492ms
moved types parse time: 51ms
candidates parse time : 1ms
C# parse time         : 225ms
candidates check time : 65ms
console write time    : 0ms

[api-updater (non-obsolete-error-filter)] 4/24/2021 12:32:29 PM : Starting C:/Program Files/Unity/Hub/Editor/2020.3.4f1/Editor/Data/Tools/ScriptUpdater/APIUpdater.NonObsoleteApiUpdaterDetector.exe
[api-updater (non-obsolete-error-filter)] 
----------------------------------
jit/startup time      : 52.0781ms
moved types parse time: 51ms
candidates parse time : 1ms
C# parse time         : 229ms
candidates check time : 66ms
console write time    : 0ms

[api-updater (non-obsolete-error-filter)] 4/24/2021 12:32:32 PM : Starting C:/Program Files/Unity/Hub/Editor/2020.3.4f1/Editor/Data/Tools/ScriptUpdater/APIUpdater.NonObsoleteApiUpdaterDetector.exe
[api-updater (non-obsolete-error-filter)] 
----------------------------------
jit/startup time      : 57.0513ms
moved types parse time: 62ms
candidates parse time : 2ms
C# parse time         : 235ms
candidates check time : 69ms
console write time    : 0ms

[api-updater (non-obsolete-error-filter)] 4/24/2021 12:32:51 PM : Starting C:/Program Files/Unity/Hub/Editor/2020.3.4f1/Editor/Data/Tools/ScriptUpdater/APIUpdater.NonObsoleteApiUpdaterDetector.exe
[api-updater (non-obsolete-error-filter)] 
----------------------------------
jit/startup time      : 55.0486ms
moved types parse time: 51ms
candidates parse time : 1ms
C# parse time         : 231ms
candidates check time : 66ms
console write time    : 0ms

[api-updater (non-obsolete-error-filter)] 4/24/2021 12:33:32 PM : Starting C:/Program Files/Unity/Hub/Editor/2020.3.4f1/Editor/Data/Tools/ScriptUpdater/APIUpdater.NonObsoleteApiUpdaterDetector.exe
[api-updater (non-obsolete-error-filter)] 
----------------------------------
jit/startup time      : 61.0521ms
moved types parse time: 51ms
candidates parse time : 1ms
C# parse time         : 235ms
candidates check time : 62ms
console write time    : 0ms

[api-updater (non-obsolete-error-filter)] 4/24/2021 12:50:13 PM : Starting C:/Program Files/Unity/Hub/Editor/2020.3.4f1/Editor/Data/Tools/ScriptUpdater/APIUpdater.NonObsoleteApiUpdaterDetector.exe
[api-updater (non-obsolete-error-filter)] 
----------------------------------
jit/startup time      : 85.077ms
moved types parse time: 53ms
candidates parse time : 1ms
C# parse time         : 225ms
candidates check time : 34ms
console write time    : 0ms

[api-updater (non-obsolete-error-filter)] 4/28/2021 9:58:04 AM : Starting C:/Program Files/Unity/Hub/Editor/2020.3.4f1/Editor/Data/Tools/ScriptUpdater/APIUpdater.NonObsoleteApiUpdaterDetector.exe
[api-updater (non-obsolete-error-filter)] 
----------------------------------
jit/startup time      : 2306.6041ms
moved types parse time: 52ms
candidates parse time : 1ms
C# parse time         : 2932ms
candidates check time : 49ms
console write time    : 0ms

